…
The main outcome variable we will be looking at is average rating. The
explanatory variables that we will explore are minimum/maximum number of
players, playtime, and year of publication. We may limit our analysis to
observations with a large number of ratings, or do some grouping by
publisher and publishing date.

``` r
board_games %>% 
  group_by(year_published) %>% 
  summarize(mean = mean(average_rating), 
            median = median(average_rating),
            n = n())
```

    ## # A tibble: 67 × 4
    ##    year_published  mean median     n
    ##             <dbl> <dbl>  <dbl> <int>
    ##  1           1950  5.76   5.73     4
    ##  2           1951  5.71   5.71     2
    ##  3           1952  5.68   5.51     3
    ##  4           1953  4.64   4.40     3
    ##  5           1954  5.65   5.67     3
    ##  6           1955  5.83   5.78     4
    ##  7           1956  5.97   5.82     6
    ##  8           1957  4.79   4.79     2
    ##  9           1958  5.52   5.48     8
    ## 10           1959  5.84   5.58     7
    ## # … with 57 more rows
…
### Monopoly

There are 72 versions of Monopoly within this data set. We’d like to
look at this subset to see how they vary in popularity, both in terms of
average rating and the number of ratings written for each.

``` r
board_games %>% 
  filter(grepl("Monopoly", name))
```

    ## # A tibble: 72 × 22
    ##    game_id description        image max_players max_playtime min_age min_players
    ##      <dbl> <chr>              <chr>       <dbl>        <dbl>   <dbl>       <dbl>
    ##  1     684 Rummy for Monopol… //cf…           6           30       8           2
    ##  2    1298 Monopoly Star War… //cf…           8           90       8           2
    ##  3    1420 Don't Go to Jail … //cf…           4           20       8           2
    ##  4    1931 The &quot;Bust~th… //cf…           6          120       8           2
    ##  5    1932 In this game the … //cf…           6          120       8           2
    ##  6    2929 Monopoly with a d… //cf…           8           60       8           2
    ##  7    3020 Forget Star Wars.… //cf…           8          180       8           2
    ##  8    3065 Monopoly - Stock … //cf…           6          120       8           2
    ##  9    3394 It's Monopoly wit… //cf…           6          120       8           2
    ## 10    5029 A monopoly (from … //cf…           8          120       8           2
    ## # … with 62 more rows, and 15 more variables: min_playtime <dbl>, name <chr>,
    ## #   playing_time <dbl>, thumbnail <chr>, year_published <dbl>, artist <chr>,
    ## #   category <chr>, compilation <chr>, designer <chr>, expansion <chr>,
    ## #   family <chr>, mechanic <chr>, publisher <chr>, average_rating <dbl>,
    ## #   users_rated <dbl>

### Catan

There are also a ton of versions of Catan!

``` r
board_games %>% 
  filter(grepl("Catan", name))
```

    ## # A tibble: 24 × 22
    ##    game_id description        image max_players max_playtime min_age min_players
    ##      <dbl> <chr>              <chr>       <dbl>        <dbl>   <dbl>       <dbl>
    ##  1      13 In Catan (formerl… //cf…           4          120      10           3
    ##  2     278 Catan Card Game b… //cf…           2           90      10           2
    ##  3    1897 The foray into sp… //cf…           4          120      12           3
    ##  4    2338 Starship Catan is… //cf…           2           60      12           2
    ##  5    3972 Settlers of Catan… //cf…           4           90      10           3
    ##  6    5824 A simplified buil… //cf…           4           20       4           2
    ##  7   22766 This limited 10th… //cf…           2           60      10           2
    ##  8   24511 From the SimplyFu… //cf…           4           30      10           2
    ##  9   25234 Catan Histories: … //cf…           4          120      10           3
    ## 10   27710 Like all the othe… //cf…           4           15       7           1
    ## # … with 14 more rows, and 15 more variables: min_playtime <dbl>, name <chr>,
    ## #   playing_time <dbl>, thumbnail <chr>, year_published <dbl>, artist <chr>,
    ## #   category <chr>, compilation <chr>, designer <chr>, expansion <chr>,
    ## #   family <chr>, mechanic <chr>, publisher <chr>, average_rating <dbl>,
    ## #   users_rated <dbl>
…
We are also curious about which categories frequently appear together,
and might explore using a heatmap to see what overlaps are common.

``` r
board_games %>% 
  separate_rows(category, sep = ",") %>% 
  group_by(category) %>% 
  summarize(number = n()) %>% 
  arrange(desc(number))
```

    ## # A tibble: 84 × 2
    ##    category          number
    ##    <chr>              <int>
    ##  1 Card Game           2981
    ##  2 Wargame             2034
    ##  3 Fantasy             1218
    ##  4 Fighting             900
    ##  5 Economic             878
    ##  6 Science Fiction      850
    ##  7 Dice                 838
    ##  8 Party Game           833
    ##  9 Abstract Strategy    710
    ## 10 Children's Game      704
    ## # … with 74 more rows
