Board Games
…
# Categories

---
class: top, center

## What categories are used?

--
.pull-left[

### Primary Categories

```
## # A tibble: 84 × 2
## # Groups:   category1 [84]
##    category1              n
##    <chr>              <int>
##  1 Card Game           2143
##  2 Abstract Strategy    710
##  3 Wargame              543
##  4 Economic             542
##  5 Adventure            527
##  6 Bluffing             514
##  7 Action / Dexterity   492
##  8 Animals              436
##  9 Dice                 394
## 10 Ancient              374
## # … with 74 more rows
```
]

--
.pull-right[

### Secondary Categories

```
## # A tibble: 83 × 2
## # Groups:   category2 [83]
##    category2           n
##    <chr>           <int>
##  1 <NA>             2007
##  2 Wargame           803
##  3 Card Game         738
##  4 Fantasy           531
##  5 World War II      465
##  6 Children's Game   335
##  7 Dice              294
##  8 Fighting          282
##  9 Economic          238
## 10 Science Fiction   237
## # … with 73 more rows
```
…
-Area Control is a mechanic in Risk. 

---
class: top, center

## What are the highest rated game mechnics?

<img src="presentation_files/figure-html/game_mechanic_pop_bar-1.png" width="80%" style="display: block; margin: auto;" />
---
class: top, center

# What are the most common game mechanics?

```
## # A tibble: 52 × 2
##    mechanic                      count
##    <chr>                         <int>
##  1 Dice Rolling                   2438
##  2 Hand Management                2176
##  3 Set Collection                 1347
##  4 Hex-and-Counter                1244
##  5 Variable Player Powers         1223
##  6 <NA>                            950
##  7 Tile Placement                  907
##  8 Modular Board                   858
##  9 Card Drafting                   844
## 10 Area Control / Area Influence   803
## # … with 42 more rows
```
…
